{"count":8209,
"next":"http://rencontres-arbres.herokuapp.com/api/trees/?page=2",
"previous":null,
"results":[
    {
        "url":"http://rencontres-arbres.herokuapp.com/api/trees/AR18291/",
        "name":"Frêne commun",
        "area":"Parc de la Tête d'Or",
        "height":8,
        "trunk_diameter":12,
        "crown_diameter":3,
        "longitude":null,
        "latitude":null,
        "genre":"http://rencontres-arbres.herokuapp.com/api/tree_genres/58/"
    },
    {
        "url":"http://rencontres-arbres.herokuapp.com/api/trees/AR18292/",
        "name":"Aubépine monogyne",
        "area":"Parc de la Tête d'Or",
        "height":7,
        "trunk_diameter":14,
        "crown_diameter":3,
        "longitude":null,
        "latitude":null,
        "genre":"http://rencontres-arbres.herokuapp.com/api/tree_genres/59/"
    }
    ,
    {
        "url":"http://rencontres-arbres.herokuapp.com/api/trees/AR18293/",
        "name":"Erable indéterminé",
        "area":"Parc de la Tête d'Or",
        "height":11,
        "trunk_diameter":20,
        "crown_diameter":6,
        "longitude":null,
        "latitude":null,
        "genre":"http://rencontres-arbres.herokuapp.com/api/tree_genres/60/"
    },
    {"url":"http://rencontres-arbres.herokuapp.com/api/trees/AR18294/","name":"Erable indéterminé","area":"Parc de la Tête d'Or","height":24,"trunk_diameter":50,"crown_diameter":10,"longitude":null,"latitude":null,"genre":"http://rencontres-arbres.herokuapp.com/api/tree_genres/60/"},{"url":"http://rencontres-arbres.herokuapp.com/api/trees/AR18295/","name":"Marronnier d'Inde","area":"Parc de la Tête d'Or","height":19,"trunk_diameter":42,"crown_diameter":8,"longitude":null,"latitude":null,"genre":"http://rencontres-arbres.herokuapp.com/api/tree_genres/61/"},{"url":"http://rencontres-arbres.herokuapp.com/api/trees/AR18296/","name":"Noisetier de Byzance","area":"Parc de la Tête d'Or","height":5,"trunk_diameter":7,"crown_diameter":3,"longitude":null,"latitude":null,"genre":"http://rencontres-arbres.herokuapp.com/api/tree_genres/62/"},{"url":"http://rencontres-arbres.herokuapp.com/api/trees/AR18297/","name":"Noisetier de Byzance","area":"Parc de la Tête d'Or","height":6,"trunk_diameter":6,"crown_diameter":2,"longitude":null,"latitude":null,"genre":"http://rencontres-arbres.herokuapp.com/api/tree_genres/62/"},{"url":"http://rencontres-arbres.herokuapp.com/api/trees/AR18214/","name":"Erable indéterminé","area":"Parc de la Tête d'Or","height":17,"trunk_diameter":24,"crown_diameter":6,"longitude":null,"latitude":null,"genre":"http://rencontres-arbres.herokuapp.com/api/tree_genres/60/"},{"url":"http://rencontres-arbres.herokuapp.com/api/trees/AR18216/","name":"Erable plane","area":"Parc de la Tête d'Or","height":24,"trunk_diameter":32,"crown_diameter":6,"longitude":null,"latitude":null,"genre":"http://rencontres-arbres.herokuapp.com/api/tree_genres/57/"},{"url":"http://rencontres-arbres.herokuapp.com/api/trees/AR18217/","name":"Erable plane","area":"Parc de la Tête d'Or","height":22,"trunk_diameter":27,"crown_diameter":5,"longitude":null,"latitude":null,"genre":"http://rencontres-arbres.herokuapp.com/api/tree_genres/57/"},{"url":"http://rencontres-arbres.herokuapp.com/api/trees/AR18219/","name":"Orme champêtre","area":"Parc de la Tête d'Or","height":9,"trunk_diameter":20,"crown_diameter":6,"longitude":null,"latitude":null,"genre":"http://rencontres-arbres.herokuapp.com/api/tree_genres/63/"},{"url":"http://rencontres-arbres.herokuapp.com/api/trees/AR18220/","name":"Marronnier d'Inde","area":"Parc de la Tête d'Or","height":3,"trunk_diameter":5,"crown_diameter":2,"longitude":null,"latitude":null,"genre":"http://rencontres-arbres.herokuapp.com/api/tree_genres/61/"},{"url":"http://rencontres-arbres.herokuapp.com/api/trees/AR16933/","name":"Erable plane","area":"Parc de la Tête d'Or","height":9,"trunk_diameter":14,"crown_diameter":6,"longitude":null,"latitude":null,"genre":"http://rencontres-arbres.herokuapp.com/api/tree_genres/57/"},{"url":"http://rencontres-arbres.herokuapp.com/api/trees/AR16934/","name":"Erable plane","area":"Parc de la Tête d'Or","height":9,"trunk_diameter":10,"crown_diameter":5,"longitude":null,"latitude":null,"genre":"http://rencontres-arbres.herokuapp.com/api/tree_genres/57/"},{"url":"http://rencontres-arbres.herokuapp.com/api/trees/AR16936/","name":"Erable plane","area":"Parc de la Tête d'Or","height":9,"trunk_diameter":10,"crown_diameter":5,"longitude":null,"latitude":null,"genre":"http://rencontres-arbres.herokuapp.com/api/tree_genres/57/"},{"url":"http://rencontres-arbres.herokuapp.com/api/trees/AR16937/","name":"Erable plane","area":"Parc de la Tête d'Or","height":9,"trunk_diameter":9,"crown_diameter":4,"longitude":null,"latitude":null,"genre":"http://rencontres-arbres.herokuapp.com/api/tree_genres/57/"},{"url":"http://rencontres-arbres.herokuapp.com/api/trees/AR16938/","name":"Erable plane","area":"Parc de la Tête d'Or","height":13,"trunk_diameter":18,"crown_diameter":6,"longitude":null,"latitude":null,"genre":"http://rencontres-arbres.herokuapp.com/api/tree_genres/57/"},{"url":"http://rencontres-arbres.herokuapp.com/api/trees/AR16940/","name":"Aubépine monogyne","area":"Parc de la Tête d'Or","height":5,"trunk_diameter":8,"crown_diameter":3,"longitude":null,"latitude":null,"genre":"http://rencontres-arbres.herokuapp.com/api/tree_genres/59/"},{"url":"http://rencontres-arbres.herokuapp.com/api/trees/AR16941/","name":"Erable sycomore","area":"Parc de la Tête d'Or","height":3,"trunk_diameter":4,"crown_diameter":1,"longitude":null,"latitude":null,"genre":"http://rencontres-arbres.herokuapp.com/api/tree_genres/64/"},{"url":"http://rencontres-arbres.herokuapp.com/api/trees/AR16942/","name":"Erable sycomore","area":"Parc de la Tête d'Or","height":12,"trunk_diameter":21,"crown_diameter":5,"longitude":null,"latitude":null,"genre":"http://rencontres-arbres.herokuapp.com/api/tree_genres/64/"},{"url":"http://rencontres-arbres.herokuapp.com/api/trees/AR16943/","name":"Erable sycomore","area":"Parc de la Tête d'Or","height":10,"trunk_diameter":1,"crown_diameter":4,"longitude":null,"latitude":null,"genre":"http://rencontres-arbres.herokuapp.com/api/tree_genres/64/"},{"url":"http://rencontres-arbres.herokuapp.com/api/trees/AR16945/","name":"Erable sycomore","area":"Parc de la Tête d'Or","height":7,"trunk_diameter":9,"crown_diameter":3,"longitude":null,"latitude":null,"genre":"http://rencontres-arbres.herokuapp.com/api/tree_genres/64/"},{"url":"http://rencontres-arbres.herokuapp.com/api/trees/AR16946/","name":"Erable sycomore","area":"Parc de la Tête d'Or","height":9,"trunk_diameter":9,"crown_diameter":2,"longitude":null,"latitude":null,"genre":"http://rencontres-arbres.herokuapp.com/api/tree_genres/64/"},{"url":"http://rencontres-arbres.herokuapp.com/api/trees/AR16948/","name":"Erable sycomore","area":"Parc de la Tête d'Or","height":10,"trunk_diameter":13,"crown_diameter":5,"longitude":null,"latitude":null,"genre":"http://rencontres-arbres.herokuapp.com/api/tree_genres/64/"},{"url":"http://rencontres-arbres.herokuapp.com/api/trees/AR16949/","name":"Erable sycomore","area":"Parc de la Tête d'Or","height":7,"trunk_diameter":12,"crown_diameter":5,"longitude":null,"latitude":null,"genre":"http://rencontres-arbres.herokuapp.com/api/tree_genres/64/"},{"url":"http://rencontres-arbres.herokuapp.com/api/trees/AR16950/","name":"Noisetier à fruits ronds","area":"Parc de la Tête d'Or","height":5,"trunk_diameter":6,"crown_diameter":2,"longitude":null,"latitude":null,"genre":"http://rencontres-arbres.herokuapp.com/api/tree_genres/65/"},{"url":"http://rencontres-arbres.herokuapp.com/api/trees/AR16951/","name":"Erable sycomore","area":"Parc de la Tête d'Or","height":4,"trunk_diameter":4,"crown_diameter":2,"longitude":null,"latitude":null,"genre":"http://rencontres-arbres.herokuapp.com/api/tree_genres/64/"},{"url":"http://rencontres-arbres.herokuapp.com/api/trees/AR16952/","name":"Aubépine monogyne","area":"Parc de la Tête d'Or","height":3,"trunk_diameter":5,"crown_diameter":2,"longitude":null,"latitude":null,"genre":"http://rencontres-arbres.herokuapp.com/api/tree_genres/59/"},{"url":"http://rencontres-arbres.herokuapp.com/api/trees/AR16953/","name":"Erable sycomore","area":"Parc de la Tête d'Or","height":6,"trunk_diameter":7,"crown_diameter":4,"longitude":null,"latitude":null,"genre":"http://rencontres-arbres.herokuapp.com/api/tree_genres/64/"},{"url":"http://rencontres-arbres.herokuapp.com/api/trees/AR16954/","name":"Plaqueminier de Ducloux","area":"Parc de la Tête d'Or","height":9,"trunk_diameter":12,"crown_diameter":5,"longitude":null,"latitude":null,"genre":"http://rencontres-arbres.herokuapp.com/api/tree_genres/66/"},{"url":"http://rencontres-arbres.herokuapp.com/api/trees/AR16955/","name":"Noisetier à fruits ronds","area":"Parc de la Tête d'Or","height":8,"trunk_diameter":14,"crown_diameter":6,"longitude":null,"latitude":null,"genre":"http://rencontres-arbres.herokuapp.com/api/tree_genres/65/"},{"url":"http://rencontres-arbres.herokuapp.com/api/trees/AR16956/","name":"Erable sycomore","area":"Parc de la Tête d'Or","height":7,"trunk_diameter":10,"crown_diameter":4,"longitude":null,"latitude":null,"genre":"http://rencontres-arbres.herokuapp.com/api/tree_genres/64/"},{"url":"http://rencontres-arbres.herokuapp.com/api/trees/AR17027/","name":"Erable plane","area":"Parc de la Tête d'Or","height":16,"trunk_diameter":15,"crown_diameter":6,"longitude":null,"latitude":null,"genre":"http://rencontres-arbres.herokuapp.com/api/tree_genres/57/"},{"url":"http://rencontres-arbres.herokuapp.com/api/trees/AR17028/","name":"Erable plane","area":"Parc de la Tête d'Or","height":4,"trunk_diameter":6,"crown_diameter":3,"longitude":null,"latitude":null,"genre":"http://rencontres-arbres.herokuapp.com/api/tree_genres/57/"},{"url":"http://rencontres-arbres.herokuapp.com/api/trees/AR17029/","name":"Erable sycomore","area":"Parc de la Tête d'Or","height":6,"trunk_diameter":10,"crown_diameter":3,"longitude":null,"latitude":null,"genre":"http://rencontres-arbres.herokuapp.com/api/tree_genres/64/"},{"url":"http://rencontres-arbres.herokuapp.com/api/trees/AR17030/","name":"Plaqueminier de Ducloux","area":"Parc de la Tête d'Or","height":14,"trunk_diameter":17,"crown_diameter":5,"longitude":null,"latitude":null,"genre":"http://rencontres-arbres.herokuapp.com/api/tree_genres/66/"},{"url":"http://rencontres-arbres.herokuapp.com/api/trees/AR17032/","name":"Frêne commun","area":"Parc de la Tête d'Or","height":4,"trunk_diameter":4,"crown_diameter":1,"longitude":null,"latitude":null,"genre":"http://rencontres-arbres.herokuapp.com/api/tree_genres/58/"},{"url":"http://rencontres-arbres.herokuapp.com/api/trees/AR17033/","name":"Aubépine monogyne","area":"Parc de la Tête d'Or","height":7,"trunk_diameter":10,"crown_diameter":3,"longitude":null,"latitude":null,"genre":"http://rencontres-arbres.herokuapp.com/api/tree_genres/59/"},{"url":"http://rencontres-arbres.herokuapp.com/api/trees/AR17034/","name":"Hêtre commun","area":"Parc de la Tête d'Or","height":10,"trunk_diameter":17,"crown_diameter":7,"longitude":null,"latitude":null,"genre":"http://rencontres-arbres.herokuapp.com/api/tree_genres/67/"},{"url":"http://rencontres-arbres.herokuapp.com/api/trees/AR17035/","name":"Erable plane","area":"Parc de la Tête d'Or","height":17,"trunk_diameter":20,"crown_diameter":6,"longitude":null,"latitude":null,"genre":"http://rencontres-arbres.herokuapp.com/api/tree_genres/57/"},{"url":"http://rencontres-arbres.herokuapp.com/api/trees/AR17038/","name":"Erable plane","area":"Parc de la Tête d'Or","height":8,"trunk_diameter":8,"crown_diameter":4,"longitude":null,"latitude":null,"genre":"http://rencontres-arbres.herokuapp.com/api/tree_genres/57/"},{"url":"http://rencontres-arbres.herokuapp.com/api/trees/AR17040/","name":"Plaqueminier de Ducloux","area":"Parc de la Tête d'Or","height":9,"trunk_diameter":10,"crown_diameter":4,"longitude":null,"latitude":null,"genre":"http://rencontres-arbres.herokuapp.com/api/tree_genres/66/"},{"url":"http://rencontres-arbres.herokuapp.com/api/trees/AR17041/","name":"Aubépine monogyne","area":"Parc de la Tête d'Or","height":5,"trunk_diameter":5,"crown_diameter":2,"longitude":null,"latitude":null,"genre":"http://rencontres-arbres.herokuapp.com/api/tree_genres/59/"},{"url":"http://rencontres-arbres.herokuapp.com/api/trees/AR17042/","name":"Erable sycomore","area":"Parc de la Tête d'Or","height":26,"trunk_diameter":49,"crown_diameter":11,"longitude":null,"latitude":null,"genre":"http://rencontres-arbres.herokuapp.com/api/tree_genres/64/"},{"url":"http://rencontres-arbres.herokuapp.com/api/trees/AR17043/","name":"Aubépine monogyne","area":"Parc de la Tête d'Or","height":5,"trunk_diameter":6,"crown_diameter":3,"longitude":null,"latitude":null,"genre":"http://rencontres-arbres.herokuapp.com/api/tree_genres/59/"},{"url":"http://rencontres-arbres.herokuapp.com/api/trees/AR17044/","name":"Erable sycomore","area":"Parc de la Tête d'Or","height":22,"trunk_diameter":34,"crown_diameter":6,"longitude":null,"latitude":null,"genre":"http://rencontres-arbres.herokuapp.com/api/tree_genres/64/"},{"url":"http://rencontres-arbres.herokuapp.com/api/trees/AR17045/","name":"Plaqueminier du Japon","area":"Parc de la Tête d'Or","height":15,"trunk_diameter":14,"crown_diameter":4,"longitude":null,"latitude":null,"genre":"http://rencontres-arbres.herokuapp.com/api/tree_genres/68/"},{"url":"http://rencontres-arbres.herokuapp.com/api/trees/AR17046/","name":"Aubépine monogyne","area":"Parc de la Tête d'Or","height":4,"trunk_diameter":5,"crown_diameter":4,"longitude":null,"latitude":null,"genre":"http://rencontres-arbres.herokuapp.com/api/tree_genres/59/"},{"url":"http://rencontres-arbres.herokuapp.com/api/trees/AR17047/","name":"Erable plane","area":"Parc de la Tête d'Or","height":16,"trunk_diameter":16,"crown_diameter":4,"longitude":null,"latitude":null,"genre":"http://rencontres-arbres.herokuapp.com/api/tree_genres/57/"},{"url":"http://rencontres-arbres.herokuapp.com/api/trees/AR17049/","name":"Aubépine monogyne","area":"Parc de la Tête d'Or","height":5,"trunk_diameter":6,"crown_diameter":2,"longitude":null,"latitude":null,"genre":"http://rencontres-arbres.herokuapp.com/api/tree_genres/59/"},{"url":"http://rencontres-arbres.herokuapp.com/api/trees/AR17050/","name":"Aubépine monogyne","area":"Parc de la Tête d'Or","height":4,"trunk_diameter":5,"crown_diameter":3,"longitude":null,"latitude":null,"genre":"http://rencontres-arbres.herokuapp.com/api/tree_genres/59/"},{"url":"http://rencontres-arbres.herokuapp.com/api/trees/AR17051/","name":"Aubépine monogyne","area":"Parc de la Tête d'Or","height":4,"trunk_diameter":6,"crown_diameter":2,"longitude":null,"latitude":null,"genre":"http://rencontres-arbres.herokuapp.com/api/tree_genres/59/"},{"url":"http://rencontres-arbres.herokuapp.com/api/trees/AR17052/","name":"Aubépine monogyne","area":"Parc de la Tête d'Or","height":6,"trunk_diameter":8,"crown_diameter":3,"longitude":null,"latitude":null,"genre":"http://rencontres-arbres.herokuapp.com/api/tree_genres/59/"},{"url":"http://rencontres-arbres.herokuapp.com/api/trees/AR17053/","name":"Erable indéterminé","area":"Parc de la Tête d'Or","height":7,"trunk_diameter":14,"crown_diameter":5,"longitude":null,"latitude":null,"genre":"http://rencontres-arbres.herokuapp.com/api/tree_genres/60/"},{"url":"http://rencontres-arbres.herokuapp.com/api/trees/AR17054/","name":"Erable sycomore","area":"Parc de la Tête d'Or","height":16,"trunk_diameter":18,"crown_diameter":4,"longitude":null,"latitude":null,"genre":"http://rencontres-arbres.herokuapp.com/api/tree_genres/64/"},{"url":"http://rencontres-arbres.herokuapp.com/api/trees/AR17055/","name":"Erable sycomore","area":"Parc de la Tête d'Or","height":9,"trunk_diameter":13,"crown_diameter":3,"longitude":null,"latitude":null,"genre":"http://rencontres-arbres.herokuapp.com/api/tree_genres/64/"},{"url":"http://rencontres-arbres.herokuapp.com/api/trees/AR17056/","name":"Erable sycomore","area":"Parc de la Tête d'Or","height":20,"trunk_diameter":25,"crown_diameter":6,"longitude":null,"latitude":null,"genre":"http://rencontres-arbres.herokuapp.com/api/tree_genres/64/"},{"url":"http://rencontres-arbres.herokuapp.com/api/trees/AR17057/","name":"Erable sycomore","area":"Parc de la Tête d'Or","height":6,"trunk_diameter":11,"crown_diameter":4,"longitude":null,"latitude":null,"genre":"http://rencontres-arbres.herokuapp.com/api/tree_genres/64/"},{"url":"http://rencontres-arbres.herokuapp.com/api/trees/AR17058/","name":"Erable sycomore","area":"Parc de la Tête d'Or","height":4,"trunk_diameter":8,"crown_diameter":3,"longitude":null,"latitude":null,"genre":"http://rencontres-arbres.herokuapp.com/api/tree_genres/64/"},{"url":"http://rencontres-arbres.herokuapp.com/api/trees/AR17059/","name":"Tilleul à petites feuilles","area":"Parc de la Tête d'Or","height":10,"trunk_diameter":21,"crown_diameter":7,"longitude":null,"latitude":null,"genre":"http://rencontres-arbres.herokuapp.com/api/tree_genres/69/"},{"url":"http://rencontres-arbres.herokuapp.com/api/trees/AR17060/","name":"Erable plane","area":"Parc de la Tête d'Or","height":12,"trunk_diameter":1,"crown_diameter":4,"longitude":null,"latitude":null,"genre":"http://rencontres-arbres.herokuapp.com/api/tree_genres/57/"},{"url":"http://rencontres-arbres.herokuapp.com/api/trees/AR17061/","name":"Erable plane","area":"Parc de la Tête d'Or","height":10,"trunk_diameter":12,"crown_diameter":2,"longitude":null,"latitude":null,"genre":"http://rencontres-arbres.herokuapp.com/api/tree_genres/57/"},{"url":"http://rencontres-arbres.herokuapp.com/api/trees/AR17064/","name":"Erable plane","area":"Parc de la Tête d'Or","height":18,"trunk_diameter":25,"crown_diameter":6,"longitude":null,"latitude":null,"genre":"http://rencontres-arbres.herokuapp.com/api/tree_genres/57/"},{"url":"http://rencontres-arbres.herokuapp.com/api/trees/AR17065/","name":"Erable plane","area":"Parc de la Tête d'Or","height":9,"trunk_diameter":10,"crown_diameter":4,"longitude":null,"latitude":null,"genre":"http://rencontres-arbres.herokuapp.com/api/tree_genres/57/"},{"url":"http://rencontres-arbres.herokuapp.com/api/trees/AR17066/","name":"Erable plane","area":"Parc de la Tête d'Or","height":15,"trunk_diameter":19,"crown_diameter":7,"longitude":null,"latitude":null,"genre":"http://rencontres-arbres.herokuapp.com/api/tree_genres/57/"},{"url":"http://rencontres-arbres.herokuapp.com/api/trees/AR17067/","name":"Erable sycomore","area":"Parc de la Tête d'Or","height":13,"trunk_diameter":16,"crown_diameter":4,"longitude":null,"latitude":null,"genre":"http://rencontres-arbres.herokuapp.com/api/tree_genres/64/"},{"url":"http://rencontres-arbres.herokuapp.com/api/trees/AR18950/","name":"Charme commun","area":"Parc de la Tête d'Or","height":11,"trunk_diameter":30,"crown_diameter":8,"longitude":null,"latitude":null,"genre":"http://rencontres-arbres.herokuapp.com/api/tree_genres/70/"},{"url":"http://rencontres-arbres.herokuapp.com/api/trees/AR18951/","name":"Charme commun","area":"Parc de la Tête d'Or","height":10,"trunk_diameter":19,"crown_diameter":5,"longitude":null,"latitude":null,"genre":"http://rencontres-arbres.herokuapp.com/api/tree_genres/70/"},{"url":"http://rencontres-arbres.herokuapp.com/api/trees/AR18952/","name":"Charme commun","area":"Parc de la Tête d'Or","height":5,"trunk_diameter":21,"crown_diameter":11,"longitude":null,"latitude":null,"genre":"http://rencontres-arbres.herokuapp.com/api/tree_genres/70/"},{"url":"http://rencontres-arbres.herokuapp.com/api/trees/AR18953/","name":"Charme commun","area":"Parc de la Tête d'Or","height":4,"trunk_diameter":15,"crown_diameter":9,"longitude":null,"latitude":null,"genre":"http://rencontres-arbres.herokuapp.com/api/tree_genres/70/"},{"url":"http://rencontres-arbres.herokuapp.com/api/trees/AR14011/","name":"Buis","area":"Parc de la Tête d'Or","height":8,"trunk_diameter":17,"crown_diameter":5,"longitude":null,"latitude":null,"genre":"http://rencontres-arbres.herokuapp.com/api/tree_genres/71/"},{"url":"http://rencontres-arbres.herokuapp.com/api/trees/AR17567/","name":"Tulipier de Virginie","area":"Parc de la Tête d'Or","height":20,"trunk_diameter":23,"crown_diameter":6,"longitude":null,"latitude":null,"genre":"http://rencontres-arbres.herokuapp.com/api/tree_genres/72/"},{"url":"http://rencontres-arbres.herokuapp.com/api/trees/AR13924/","name":"Erable indéterminé","area":"Parc de la Tête d'Or","height":8,"trunk_diameter":17,"crown_diameter":5,"longitude":null,"latitude":null,"genre":"http://rencontres-arbres.herokuapp.com/api/tree_genres/60/"},{"url":"http://rencontres-arbres.herokuapp.com/api/trees/AR13925/","name":"If commun","area":"Parc de la Tête d'Or","height":6,"trunk_diameter":21,"crown_diameter":6,"longitude":null,"latitude":null,"genre":"http://rencontres-arbres.herokuapp.com/api/tree_genres/73/"},{"url":"http://rencontres-arbres.herokuapp.com/api/trees/AR13926/","name":"Erable indéterminé","area":"Parc de la Tête d'Or","height":15,"trunk_diameter":31,"crown_diameter":7,"longitude":null,"latitude":null,"genre":"http://rencontres-arbres.herokuapp.com/api/tree_genres/60/"},{"url":"http://rencontres-arbres.herokuapp.com/api/trees/AR13927/","name":"Erable indéterminé","area":"Parc de la Tête d'Or","height":16,"trunk_diameter":23,"crown_diameter":6,"longitude":null,"latitude":null,"genre":"http://rencontres-arbres.herokuapp.com/api/tree_genres/60/"},{"url":"http://rencontres-arbres.herokuapp.com/api/trees/AR13928/","name":"Erable indéterminé","area":"Parc de la Tête d'Or","height":19,"trunk_diameter":33,"crown_diameter":7,"longitude":null,"latitude":null,"genre":"http://rencontres-arbres.herokuapp.com/api/tree_genres/60/"},{"url":"http://rencontres-arbres.herokuapp.com/api/trees/AR13929/","name":"Erable indéterminé","area":"Parc de la Tête d'Or","height":19,"trunk_diameter":32,"crown_diameter":6,"longitude":null,"latitude":null,"genre":"http://rencontres-arbres.herokuapp.com/api/tree_genres/60/"},{"url":"http://rencontres-arbres.herokuapp.com/api/trees/AR13930/","name":"Erable indéterminé","area":"Parc de la Tête d'Or","height":15,"trunk_diameter":44,"crown_diameter":12,"longitude":null,"latitude":null,"genre":"http://rencontres-arbres.herokuapp.com/api/tree_genres/60/"},{"url":"http://rencontres-arbres.herokuapp.com/api/trees/AR14012/","name":"Hêtre commun","area":"Parc de la Tête d'Or","height":0,"trunk_diameter":51,"crown_diameter":10,"longitude":null,"latitude":null,"genre":"http://rencontres-arbres.herokuapp.com/api/tree_genres/67/"},{"url":"http://rencontres-arbres.herokuapp.com/api/trees/AR16732/","name":"Erable plane","area":"Parc de la Tête d'Or","height":27,"trunk_diameter":42,"crown_diameter":10,"longitude":null,"latitude":null,"genre":"http://rencontres-arbres.herokuapp.com/api/tree_genres/57/"},{"url":"http://rencontres-arbres.herokuapp.com/api/trees/AR16733/","name":"Erable plane","area":"Parc de la Tête d'Or","height":27,"trunk_diameter":70,"crown_diameter":15,"longitude":null,"latitude":null,"genre":"http://rencontres-arbres.herokuapp.com/api/tree_genres/57/"},{"url":"http://rencontres-arbres.herokuapp.com/api/trees/AR16734/","name":"If commun","area":"Parc de la Tête d'Or","height":7,"trunk_diameter":19,"crown_diameter":5,"longitude":null,"latitude":null,"genre":"http://rencontres-arbres.herokuapp.com/api/tree_genres/73/"},{"url":"http://rencontres-arbres.herokuapp.com/api/trees/AR16735/","name":"Hêtre commun","area":"Parc de la Tête d'Or","height":6,"trunk_diameter":11,"crown_diameter":5,"longitude":null,"latitude":null,"genre":"http://rencontres-arbres.herokuapp.com/api/tree_genres/67/"},{"url":"http://rencontres-arbres.herokuapp.com/api/trees/AR16737/","name":"Marronnier d'Inde","area":"Parc de la Tête d'Or","height":21,"trunk_diameter":40,"crown_diameter":6,"longitude":null,"latitude":null,"genre":"http://rencontres-arbres.herokuapp.com/api/tree_genres/61/"},{"url":"http://rencontres-arbres.herokuapp.com/api/trees/AR16738/","name":"Erable plane","area":"Parc de la Tête d'Or","height":28,"trunk_diameter":33,"crown_diameter":9,"longitude":null,"latitude":null,"genre":"http://rencontres-arbres.herokuapp.com/api/tree_genres/57/"},{"url":"http://rencontres-arbres.herokuapp.com/api/trees/AR16741/","name":"Erable plane","area":"Parc de la Tête d'Or","height":25,"trunk_diameter":51,"crown_diameter":10,"longitude":null,"latitude":null,"genre":"http://rencontres-arbres.herokuapp.com/api/tree_genres/57/"},{"url":"http://rencontres-arbres.herokuapp.com/api/trees/AR16743/","name":"Marronnier d'Inde","area":"Parc de la Tête d'Or","height":8,"trunk_diameter":17,"crown_diameter":5,"longitude":null,"latitude":null,"genre":"http://rencontres-arbres.herokuapp.com/api/tree_genres/61/"},{"url":"http://rencontres-arbres.herokuapp.com/api/trees/AR16744/","name":"Erable plane","area":"Parc de la Tête d'Or","height":17,"trunk_diameter":14,"crown_diameter":2,"longitude":null,"latitude":null,"genre":"http://rencontres-arbres.herokuapp.com/api/tree_genres/57/"},{"url":"http://rencontres-arbres.herokuapp.com/api/trees/AR16854/","name":"Erable sycomore","area":"Parc de la Tête d'Or","height":18,"trunk_diameter":24,"crown_diameter":6,"longitude":null,"latitude":null,"genre":"http://rencontres-arbres.herokuapp.com/api/tree_genres/64/"},{"url":"http://rencontres-arbres.herokuapp.com/api/trees/AR16855/","name":"Erable indéterminé","area":"Parc de la Tête d'Or","height":22,"trunk_diameter":35,"crown_diameter":8,"longitude":null,"latitude":null,"genre":"http://rencontres-arbres.herokuapp.com/api/tree_genres/60/"},{"url":"http://rencontres-arbres.herokuapp.com/api/trees/AR16856/","name":"Erable indéterminé","area":"Parc de la Tête d'Or","height":24,"trunk_diameter":45,"crown_diameter":8,"longitude":null,"latitude":null,"genre":"http://rencontres-arbres.herokuapp.com/api/tree_genres/60/"},{"url":"http://rencontres-arbres.herokuapp.com/api/trees/AR16857/","name":"Erable plane","area":"Parc de la Tête d'Or","height":28,"trunk_diameter":30,"crown_diameter":6,"longitude":null,"latitude":null,"genre":"http://rencontres-arbres.herokuapp.com/api/tree_genres/57/"},{"url":"http://rencontres-arbres.herokuapp.com/api/trees/AR16858/","name":"Erable plane","area":"Parc de la Tête d'Or","height":26,"trunk_diameter":38,"crown_diameter":8,"longitude":null,"latitude":null,"genre":"http://rencontres-arbres.herokuapp.com/api/tree_genres/57/"},{"url":"http://rencontres-arbres.herokuapp.com/api/trees/AR16859/","name":"Erable plane","area":"Parc de la Tête d'Or","height":24,"trunk_diameter":34,"crown_diameter":8,"longitude":null,"latitude":null,"genre":"http://rencontres-arbres.herokuapp.com/api/tree_genres/57/"},{"url":"http://rencontres-arbres.herokuapp.com/api/trees/AR16860/","name":"Erable plane","area":"Parc de la Tête d'Or","height":32,"trunk_diameter":45,"crown_diameter":12,"longitude":null,"latitude":null,"genre":"http://rencontres-arbres.herokuapp.com/api/tree_genres/57/"},{"url":"http://rencontres-arbres.herokuapp.com/api/trees/AR16861/","name":"Erable plane","area":"Parc de la Tête d'Or","height":26,"trunk_diameter":40,"crown_diameter":8,"longitude":null,"latitude":null,"genre":"http://rencontres-arbres.herokuapp.com/api/tree_genres/57/"},{"url":"http://rencontres-arbres.herokuapp.com/api/trees/AR16862/","name":"Erable plane","area":"Parc de la Tête d'Or","height":26,"trunk_diameter":43,"crown_diameter":10,"longitude":null,"latitude":null,"genre":"http://rencontres-arbres.herokuapp.com/api/tree_genres/57/"},{"url":"http://rencontres-arbres.herokuapp.com/api/trees/AR16863/","name":"Erable champêtre","area":"Parc de la Tête d'Or","height":8,"trunk_diameter":2,"crown_diameter":4,"longitude":null,"latitude":null,"genre":"http://rencontres-arbres.herokuapp.com/api/tree_genres/74/"},{"url":"http://rencontres-arbres.herokuapp.com/api/trees/AR16864/","name":"Tilleul à petites feuilles","area":"Parc de la Tête d'Or","height":8,"trunk_diameter":17,"crown_diameter":5,"longitude":null,"latitude":null,"genre":"http://rencontres-arbres.herokuapp.com/api/tree_genres/69/"}]}